Filesystem     1K-blocks      Used Available Use% Mounted on
dev              1997432         0   1997432   0% /dev
run              2004948       924   2004024   1% /run
/dev/sda2       40455424   7055724  31312484  19% /
tmpfs            2004948         0   2004948   0% /dev/shm
tmpfs            2004948         8   2004940   1% /tmp
/dev/sda1         523244     50096    473148  10% /boot
VmShared       960384328 462666868 497717460  49% /media/sf_VmShared
tmpfs             400988        68    400920   1% /run/user/1000
