Filesystem     1K-blocks      Used Available Use% Mounted on
dev              1996404         0   1996404   0% /dev
run              2003792       924   2002868   1% /run
/dev/sda2       40455424   7207348  31160860  19% /
tmpfs            2003792         0   2003792   0% /dev/shm
tmpfs            2003792         8   2003784   1% /tmp
/dev/sda1         523244     50628    472616  10% /boot
VmShared       960384328 621341888 339042440  65% /media/sf_VmShared
tmpfs             400756        68    400688   1% /run/user/1000
