Filesystem     1K-blocks      Used Available Use% Mounted on
dev              1996404         0   1996404   0% /dev
run              2003792       924   2002868   1% /run
/dev/sda2       40455424   7159112  31209096  19% /
tmpfs            2003792         0   2003792   0% /dev/shm
tmpfs            2003792         8   2003784   1% /tmp
/dev/sda1         523244     50608    472636  10% /boot
VmShared       960384328 587127576 373256752  62% /media/sf_VmShared
tmpfs             400756        72    400684   1% /run/user/1000
