Filesystem     1K-blocks      Used Available Use% Mounted on
dev              1997520         0   1997520   0% /dev
run              2004992       924   2004068   1% /run
/dev/sda2       40455424   6926860  31441348  19% /
tmpfs            2004992         0   2004992   0% /dev/shm
tmpfs            2004992         8   2004984   1% /tmp
/dev/sda1         523244     48160    475084  10% /boot
VmShared       960384328 457321488 503062840  48% /media/sf_VmShared
tmpfs             400996        72    400924   1% /run/user/1000
