Filesystem     1K-blocks      Used Available Use% Mounted on
dev              1995056         0   1995056   0% /dev
run              2002984       932   2002052   1% /run
/dev/sda2       40455424   7028552  31339656  19% /
tmpfs            2002984         0   2002984   0% /dev/shm
tmpfs            2002984         8   2002976   1% /tmp
/dev/sda1         523244     52256    470988  10% /boot
VmShared       960384328 607871164 352513164  64% /media/sf_VmShared
tmpfs             400596        68    400528   1% /run/user/1000
