Filesystem     1K-blocks      Used Available Use% Mounted on
dev              1995028         0   1995028   0% /dev
run              2002980       932   2002048   1% /run
/dev/sda2       40455424   6996840  31371368  19% /
tmpfs            2002980         0   2002980   0% /dev/shm
tmpfs            2002980         8   2002972   1% /tmp
/dev/sda1         523244     52340    470904  11% /boot
VmShared       960384328 634574160 325810168  67% /media/sf_VmShared
tmpfs             400596        68    400528   1% /run/user/1000
