Filesystem     1K-blocks      Used Available Use% Mounted on
dev              1997552         0   1997552   0% /dev
run              2005000       920   2004080   1% /run
/dev/sda2       40455424   6949380  31418828  19% /
tmpfs            2005000         0   2005000   0% /dev/shm
tmpfs            2005000         8   2004992   1% /tmp
/dev/sda1         523244     48076    475168  10% /boot
VmShared       960384328 450900932 509483396  47% /media/sf_VmShared
tmpfs             401000        68    400932   1% /run/user/1000
