Filesystem     1K-blocks      Used Available Use% Mounted on
dev              1995004         0   1995004   0% /dev
run              2002996       932   2002064   1% /run
/dev/sda2       40455424   7522196  30846012  20% /
tmpfs            2002996         0   2002996   0% /dev/shm
tmpfs            2002996         8   2002988   1% /tmp
/dev/sda1         523244     54512    468732  11% /boot
VmShared       960384328 597583404 362800924  63% /media/sf_VmShared
tmpfs             400596        68    400528   1% /run/user/1000
