Filesystem     1K-blocks      Used Available Use% Mounted on
dev              1996836         0   1996836   0% /dev
run              2004244       916   2003328   1% /run
/dev/sda2       40455424   6795116  31573092  18% /
tmpfs            2004244         0   2004244   0% /dev/shm
tmpfs            2004244         8   2004236   1% /tmp
/dev/sda1         523244     47848    475396  10% /boot
VmShared       960384328 415053308 545331020  44% /media/sf_VmShared
tmpfs             400848        68    400780   1% /run/user/1000
