Filesystem     1K-blocks      Used Available Use% Mounted on
dev              1997544         0   1997544   0% /dev
run              2004996       920   2004076   1% /run
/dev/sda2       40455424   6948192  31420016  19% /
tmpfs            2004996         0   2004996   0% /dev/shm
tmpfs            2004996         8   2004988   1% /tmp
/dev/sda1         523244     47960    475284  10% /boot
VmShared       960384328 440446200 519938128  46% /media/sf_VmShared
tmpfs             400996        68    400928   1% /run/user/1000
