Filesystem     1K-blocks      Used Available Use% Mounted on
dev              2000160         0   2000160   0% /dev
run              2009524      1172   2008352   1% /run
/dev/sda1       40967152   9328180  29525756  25% /
tmpfs            2009524         0   2009524   0% /dev/shm
tmpfs            2009528      8020   2001508   1% /tmp
VmShared       960384328 600402588 359981740  63% /media/sf_VmShared
tmpfs             401904        76    401828   1% /run/user/1000
