Filesystem     1K-blocks      Used Available Use% Mounted on
dev              2001412         0   2001412   0% /dev
run              2010360      1176   2009184   1% /run
/dev/sda1       40967152   8898020  29955916  23% /
tmpfs            2010360         0   2010360   0% /dev/shm
tmpfs            2010360        12   2010348   1% /tmp
VmShared       960384328 469852768 490531560  49% /media/sf_VmShared
tmpfs             402072        76    401996   1% /run/user/1000
