Filesystem     1K-blocks      Used Available Use% Mounted on
dev              2003516         0   2003516   0% /dev
run              2011704      1168   2010536   1% /run
/dev/sda1       40967152   8656060  30197876  23% /
tmpfs            2011704         0   2011704   0% /dev/shm
tmpfs            2011704      7568   2004136   1% /tmp
VmShared       960384328 380646500 579737828  40% /media/sf_VmShared
tmpfs             402340        80    402260   1% /run/user/1000
