Filesystem     1K-blocks      Used Available Use% Mounted on
dev              2001408         0   2001408   0% /dev
run              2010228      1172   2009056   1% /run
/dev/sda1       40967152   8936976  29916960  24% /
tmpfs            2010228         0   2010228   0% /dev/shm
tmpfs            2010232      7860   2002372   1% /tmp
VmShared       960384328 486778200 473606128  51% /media/sf_VmShared
tmpfs             402044        76    401968   1% /run/user/1000
