Filesystem     1K-blocks      Used Available Use% Mounted on
dev              2001416         0   2001416   0% /dev
run              2010360      1168   2009192   1% /run
/dev/sda1       40967152   8907124  29946812  23% /
tmpfs            2010360         0   2010360   0% /dev/shm
tmpfs            2010360      7832   2002528   1% /tmp
VmShared       960384328 488803556 471580772  51% /media/sf_VmShared
tmpfs             402072        76    401996   1% /run/user/1000
