Filesystem     1K-blocks      Used Available Use% Mounted on
dev              2002672         0   2002672   0% /dev
run              2011432      1172   2010260   1% /run
/dev/sda1       40967152   8718480  30135456  23% /
tmpfs            2011432         0   2011432   0% /dev/shm
tmpfs            2011436      7628   2003808   1% /tmp
VmShared       960384328 459821124 500563204  48% /media/sf_VmShared
tmpfs             402284        76    402208   1% /run/user/1000
