Filesystem     1K-blocks      Used Available Use% Mounted on
dev              2000380         0   2000380   0% /dev
run              2009552      1176   2008376   1% /run
/dev/sda1       40967152   9191224  29662712  24% /
tmpfs            2009552         0   2009552   0% /dev/shm
tmpfs            2009552        12   2009540   1% /tmp
VmShared       960384328 630136148 330248180  66% /media/sf_VmShared
tmpfs             401908        76    401832   1% /run/user/1000
