Filesystem     1K-blocks      Used Available Use% Mounted on
dev              2001404         0   2001404   0% /dev
run              2010228      1176   2009052   1% /run
/dev/sda1       40967152   8982896  29871040  24% /
tmpfs            2010228         0   2010228   0% /dev/shm
tmpfs            2010228        12   2010216   1% /tmp
VmShared       960384328 628424236 331960092  66% /media/sf_VmShared
tmpfs             402044        76    401968   1% /run/user/1000
