Filesystem     1K-blocks      Used Available Use% Mounted on
dev              2004188         0   2004188   0% /dev
run              2013976      1172   2012804   1% /run
/dev/sda1       40967152   9402020  29451916  25% /
tmpfs            2013976         0   2013976   0% /dev/shm
tmpfs               4096         0      4096   0% /sys/fs/cgroup
tmpfs            2013980      9052   2004928   1% /tmp
VmShared       960384328 255654524 704729804  27% /media/sf_VmShared
tmpfs             402792       108    402684   1% /run/user/1000
