Filesystem     1K-blocks      Used Available Use% Mounted on
dev              2001364         0   2001364   0% /dev
run              2011784      1208   2010576   1% /run
/dev/sda1       40967152  10463176  28390760  27% /
tmpfs            2011784         0   2011784   0% /dev/shm
tmpfs            2011784      9144   2002640   1% /tmp
VmShared       960384328 602309812 358074516  63% /media/sf_VmShared
tmpfs             402356       108    402248   1% /run/user/1000
