Filesystem     1K-blocks      Used Available Use% Mounted on
dev              2001432         0   2001432   0% /dev
run              2011764      1200   2010564   1% /run
/dev/sda1       40967152  11928984  26924952  31% /
tmpfs            2011764         0   2011764   0% /dev/shm
tmpfs            2011768      9372   2002396   1% /tmp
VmShared       960384328 629946252 330438076  66% /media/sf_VmShared
tmpfs             402352       104    402248   1% /run/user/1000
