Filesystem     1K-blocks      Used Available Use% Mounted on
dev              2001316         0   2001316   0% /dev
run              2011760      1208   2010552   1% /run
/dev/sda1       40967152  11129996  27723940  29% /
tmpfs            2011760         0   2011760   0% /dev/shm
tmpfs            2011764      9264   2002500   1% /tmp
VmShared       960384328 617202560 343181768  65% /media/sf_VmShared
tmpfs             402352       108    402244   1% /run/user/1000
