Filesystem     1K-blocks      Used Available Use% Mounted on
dev              2001384         0   2001384   0% /dev
run              2011760      1212   2010548   1% /run
/dev/sda1       40967152  12278584  26575352  32% /
tmpfs            2011760         0   2011760   0% /dev/shm
tmpfs            2011760      9340   2002420   1% /tmp
VmShared       960384328 637261616 323122712  67% /media/sf_VmShared
tmpfs             402352       108    402244   1% /run/user/1000
