Filesystem     1K-blocks      Used Available Use% Mounted on
dev              2001384         0   2001384   0% /dev
run              2011916      1204   2010712   1% /run
/dev/sda1       40967152  10337156  28516780  27% /
tmpfs            2011916         0   2011916   0% /dev/shm
tmpfs            2011920      8952   2002968   1% /tmp
VmShared       960384328 464532712 495851616  49% /media/sf_VmShared
tmpfs             402380       104    402276   1% /run/user/1000
