Filesystem     1K-blocks      Used Available Use% Mounted on
dev              2001388         0   2001388   0% /dev
run              2011916      1208   2010708   1% /run
/dev/sda1       40967152  10254412  28599524  27% /
tmpfs            2011916         0   2011916   0% /dev/shm
tmpfs            2011920         0   2011920   0% /tmp
VmShared       960384328 463032908 497351420  49% /media/sf_VmShared
tmpfs             402380       108    402272   1% /run/user/1000
