Filesystem     1K-blocks      Used Available Use% Mounted on
dev              1999016         0   1999016   0% /dev
run              2011756      1268   2010488   1% /run
/dev/sda1       40967152  12128084  26725852  32% /
tmpfs            2011756         0   2011756   0% /dev/shm
tmpfs            2011760      9340   2002420   1% /tmp
VmShared       960384328 608393344 351990984  64% /media/sf_VmShared
tmpfs             402348       112    402236   1% /run/user/1000
