Filesystem     1K-blocks      Used Available Use% Mounted on
dev              2001360         0   2001360   0% /dev
run              2011776      1208   2010568   1% /run
/dev/sda1       40967152  10806328  28047608  28% /
tmpfs            2011776         0   2011776   0% /dev/shm
tmpfs            2011780      9176   2002604   1% /tmp
VmShared       960384328 627437036 332947292  66% /media/sf_VmShared
tmpfs             402352       112    402240   1% /run/user/1000
