Filesystem     1K-blocks      Used Available Use% Mounted on
dev              2001324         0   2001324   0% /dev
run              2011760      1208   2010552   1% /run
/dev/sda1       40967152  10960804  27893132  29% /
tmpfs            2011760         0   2011760   0% /dev/shm
tmpfs            2011764      9204   2002560   1% /tmp
VmShared       960384328 660182224 300202104  69% /media/sf_VmShared
tmpfs             402352       108    402244   1% /run/user/1000
