Filesystem     1K-blocks      Used Available Use% Mounted on
devtmpfs         1991432         8   1991424   1% /dev
tmpfs            2004888         0   2004888   0% /dev/shm
tmpfs             801956      1536    800420   1% /run
/dev/sda2       39835648  22236260  17038428  57% /
tmpfs            2004888        12   2004876   1% /tmp
/dev/sda2       39835648  22236260  17038428  57% /home
/dev/sda2       39835648  22236260  17038428  57% /boot/grub2/x86_64-efi
/dev/sda2       39835648  22236260  17038428  57% /.snapshots
/dev/sda2       39835648  22236260  17038428  57% /boot/grub2/i386-pc
/dev/sda2       39835648  22236260  17038428  57% /srv
/dev/sda2       39835648  22236260  17038428  57% /root
/dev/sda2       39835648  22236260  17038428  57% /opt
/dev/sda2       39835648  22236260  17038428  57% /usr/local
/dev/sda2       39835648  22236260  17038428  57% /var
VmShared       960384328 611646060 348738268  64% /media/sf_VmShared
tmpfs             400976        88    400888   1% /run/user/1000
/dev/sr0           59558     59558         0 100% /run/media/user1/VBox_GAs_6.1.16
