Filesystem     1K-blocks      Used Available Use% Mounted on
devtmpfs         1995916         8   1995908   1% /dev
tmpfs            2007108         0   2007108   0% /dev/shm
tmpfs             802844      1524    801320   1% /run
/dev/sda2       39835648  12970600  26422552  33% /
tmpfs            2007112         8   2007104   1% /tmp
/dev/sda2       39835648  12970600  26422552  33% /.snapshots
/dev/sda2       39835648  12970600  26422552  33% /boot/grub2/x86_64-efi
/dev/sda2       39835648  12970600  26422552  33% /opt
/dev/sda2       39835648  12970600  26422552  33% /srv
/dev/sda2       39835648  12970600  26422552  33% /var
/dev/sda2       39835648  12970600  26422552  33% /boot/grub2/i386-pc
/dev/sda2       39835648  12970600  26422552  33% /home
/dev/sda2       39835648  12970600  26422552  33% /root
/dev/sda2       39835648  12970600  26422552  33% /usr/local
VmShared       960384328 259980976 700403352  28% /media/sf_VmShared
tmpfs             401420        84    401336   1% /run/user/1000
/dev/sr0           59558     59558         0 100% /run/media/user1/VBox_GAs_6.1.16
