Filesystem     1K-blocks      Used Available Use% Mounted on
devtmpfs         1992516         8   1992508   1% /dev
tmpfs            2005056         0   2005056   0% /dev/shm
tmpfs             802024      1524    800500   1% /run
/dev/sda2       39835648  16295348  22639884  42% /
tmpfs            2005060         8   2005052   1% /tmp
/dev/sda2       39835648  16295348  22639884  42% /.snapshots
/dev/sda2       39835648  16295348  22639884  42% /boot/grub2/i386-pc
/dev/sda2       39835648  16295348  22639884  42% /boot/grub2/x86_64-efi
/dev/sda2       39835648  16295348  22639884  42% /opt
/dev/sda2       39835648  16295348  22639884  42% /home
/dev/sda2       39835648  16295348  22639884  42% /usr/local
/dev/sda2       39835648  16295348  22639884  42% /srv
/dev/sda2       39835648  16295348  22639884  42% /var
/dev/sda2       39835648  16295348  22639884  42% /root
VmShared       960384328 610668184 349716144  64% /media/sf_VmShared
tmpfs             401008        88    400920   1% /run/user/1000
/dev/sr0           59558     59558         0 100% /run/media/user1/VBox_GAs_6.1.16
