Filesystem     1K-blocks      Used Available Use% Mounted on
devtmpfs         1995660         8   1995652   1% /dev
tmpfs            2006784         0   2006784   0% /dev/shm
tmpfs             802716      1528    801188   1% /run
/dev/sda2       39835648  16838880  22686256  43% /
tmpfs            2006784         8   2006776   1% /tmp
/dev/sda2       39835648  16838880  22686256  43% /boot/grub2/i386-pc
/dev/sda2       39835648  16838880  22686256  43% /boot/grub2/x86_64-efi
/dev/sda2       39835648  16838880  22686256  43% /srv
/dev/sda2       39835648  16838880  22686256  43% /root
/dev/sda2       39835648  16838880  22686256  43% /usr/local
/dev/sda2       39835648  16838880  22686256  43% /opt
/dev/sda2       39835648  16838880  22686256  43% /home
/dev/sda2       39835648  16838880  22686256  43% /var
/dev/sda2       39835648  16838880  22686256  43% /.snapshots
VmShared       960384328 396467300 563917028  42% /media/sf_VmShared
tmpfs             401356        88    401268   1% /run/user/1000
/dev/sr0           59558     59558         0 100% /run/media/user1/VBox_GAs_6.1.16
