Filesystem     1K-blocks      Used Available Use% Mounted on
devtmpfs         1995680         8   1995672   1% /dev
tmpfs            2006784         0   2006784   0% /dev/shm
tmpfs             802716      1520    801196   1% /run
/dev/sda2       39835648  13092680  26305976  34% /
tmpfs            2006784         8   2006776   1% /tmp
/dev/sda2       39835648  13092680  26305976  34% /home
/dev/sda2       39835648  13092680  26305976  34% /usr/local
/dev/sda2       39835648  13092680  26305976  34% /opt
/dev/sda2       39835648  13092680  26305976  34% /root
/dev/sda2       39835648  13092680  26305976  34% /boot/grub2/x86_64-efi
/dev/sda2       39835648  13092680  26305976  34% /srv
/dev/sda2       39835648  13092680  26305976  34% /var
/dev/sda2       39835648  13092680  26305976  34% /.snapshots
/dev/sda2       39835648  13092680  26305976  34% /boot/grub2/i386-pc
VmShared       960384328 425503724 534880604  45% /media/sf_VmShared
tmpfs             401356        88    401268   1% /run/user/1000
/dev/sr0           59558     59558         0 100% /run/media/user1/VBox_GAs_6.1.16
