Filesystem     1K-blocks     Used Available Use% Mounted on
devtmpfs           10240        0     10240   0% /dev
tmpfs            2015252        0   2015252   0% /dev/shm
tmpfs            2015252     4804   2010448   1% /run
/dev/sda1       40967152 22610176  16243760  59% /
cgroup_root        10240        0     10240   0% /sys/fs/cgroup
tmpfs             403048       12    403036   1% /run/user/1000

