Filesystem     1K-blocks     Used Available Use% Mounted on
devtmpfs           10240        0     10240   0% /dev
tmpfs            2016740        0   2016740   0% /dev/shm
tmpfs            2016740     4840   2011900   1% /run
/dev/sda1       40967152 20694240  18159696  54% /
cgroup_root        10240        0     10240   0% /sys/fs/cgroup
tmpfs             403348       12    403336   1% /run/user/1000

