Filesystem     1K-blocks     Used Available Use% Mounted on
devtmpfs           10240        0     10240   0% /dev
tmpfs            2015264        0   2015264   0% /dev/shm
tmpfs            2015264     4860   2010404   1% /run
/dev/sda1       40967152 21652004  17201932  56% /
cgroup_root        10240        0     10240   0% /sys/fs/cgroup
tmpfs             403052       12    403040   1% /run/user/1000

