Filesystem     1K-blocks     Used Available Use% Mounted on
devtmpfs           10240        0     10240   0% /dev
tmpfs            2015268        0   2015268   0% /dev/shm
tmpfs            2015268     4800   2010468   1% /run
/dev/sda1       40967152 22643260  16210676  59% /
cgroup_root        10240        0     10240   0% /sys/fs/cgroup
tmpfs             403052       12    403040   1% /run/user/1000

