Filesystem     1K-blocks     Used Available Use% Mounted on
devtmpfs           10240        0     10240   0% /dev
tmpfs            2016732        0   2016732   0% /dev/shm
tmpfs            2016732     4840   2011892   1% /run
/dev/sda1       40967152 17705096  21148840  46% /
cgroup_root        10240        0     10240   0% /sys/fs/cgroup
tmpfs             403344       12    403332   1% /run/user/1000

