Filesystem     1K-blocks     Used Available Use% Mounted on
devtmpfs           10240        0     10240   0% /dev
tmpfs            2015240        0   2015240   0% /dev/shm
tmpfs            2015240     4856   2010384   1% /run
/dev/sda1       40967152 16484388  22369548  43% /
cgroup_root        10240        0     10240   0% /sys/fs/cgroup
tmpfs             403048       12    403036   1% /run/user/1000

