Filesystem     1K-blocks      Used Available Use% Mounted on
devtmpfs         1981376         0   1981376   0% /dev
tmpfs            2013724         0   2013724   0% /dev/shm
tmpfs             805492      9440    796052   2% /run
/dev/sda2       39096900   7739564  29341592  21% /
tmpfs            2013728         0   2013728   0% /tmp
tmpfs             402744        32    402712   1% /run/user/1000
VmShared       960384328 462345660 498038668  49% /media/sf_VmShared
/dev/sr0           59558     59558         0 100% /run/media/user1/VBox_GAs_6.1.16
