Filesystem     1K-blocks      Used Available Use% Mounted on
devtmpfs         1980580         0   1980580   0% /dev
tmpfs            2013716         0   2013716   0% /dev/shm
tmpfs             805488      9448    796040   2% /run
/dev/sda2       39096900   8239332  28841824  23% /
tmpfs            2013716         0   2013716   0% /tmp
tmpfs             402740        32    402708   1% /run/user/1000
/dev/sr0           59662     59662         0 100% /run/media/user1/VBox_GAs_6.1.28
VmShared       960384328 632978640 327405688  66% /media/sf_VmShared
