Filesystem     1K-blocks      Used Available Use% Mounted on
devtmpfs         1981904         0   1981904   0% /dev
tmpfs            2014028         0   2014028   0% /dev/shm
tmpfs             805612      9440    796172   2% /run
/dev/sda2       39096900   7694996  29386160  21% /
tmpfs            2014028         0   2014028   0% /tmp
tmpfs             402804        32    402772   1% /run/user/1000
VmShared       960384328 421943984 538440344  44% /media/sf_VmShared
/dev/sr0           59558     59558         0 100% /run/media/user1/VBox_GAs_6.1.16
