Filesystem     1K-blocks      Used Available Use% Mounted on
devtmpfs            4096         0      4096   0% /dev
tmpfs            2013700         0   2013700   0% /dev/shm
tmpfs             805480      9420    796060   2% /run
/dev/sda2       39096900   8323044  28758112  23% /
tmpfs            2013700         0   2013700   0% /tmp
tmpfs             402740        32    402708   1% /run/user/1000
/dev/sr0           59770     59770         0 100% /run/media/user1/VBox_GAs_6.1.32
VmShared       960384328 634795444 325588884  67% /media/sf_VmShared
