Filesystem     1K-blocks      Used Available Use% Mounted on
devtmpfs         1983968         0   1983968   0% /dev
tmpfs            2014176         0   2014176   0% /dev/shm
tmpfs             805672      9428    796244   2% /run
/dev/sda2       39096900   7637172  29443984  21% /
tmpfs            2014180         0   2014180   0% /tmp
tmpfs             402832        40    402792   1% /run/user/1000
VmShared       960384328 301708324 658676004  32% /media/sf_VmShared
/dev/sr0           59558     59558         0 100% /run/media/user1/VBox_GAs_6.1.16
