Filesystem     1K-blocks      Used Available Use% Mounted on
devtmpfs         1980580         0   1980580   0% /dev
tmpfs            2013716         0   2013716   0% /dev/shm
tmpfs             805488      9460    796028   2% /run
/dev/sda2       39096900   8262488  28818668  23% /
tmpfs            2013716         0   2013716   0% /tmp
tmpfs             402740        32    402708   1% /run/user/1000
/dev/sr0           59662     59662         0 100% /run/media/user1/VBox_GAs_6.1.28
VmShared       960384328 639400332 320983996  67% /media/sf_VmShared
