Filesystem     1K-blocks      Used Available Use% Mounted on
devtmpfs         1980584         0   1980584   0% /dev
tmpfs            2013716         0   2013716   0% /dev/shm
tmpfs             805488      9444    796044   2% /run
/dev/sda2       39096900   7646112  29435044  21% /
tmpfs            2013716         0   2013716   0% /tmp
tmpfs             402740        32    402708   1% /run/user/1000
VmShared       960384328 635797740 324586588  67% /media/sf_VmShared
/dev/sr0           59558     59558         0 100% /run/media/user1/VBox_GAs_6.1.16
