Filesystem     1K-blocks      Used Available Use% Mounted on
devtmpfs         1983968         0   1983968   0% /dev
tmpfs            2014180         0   2014180   0% /dev/shm
tmpfs             805672      9428    796244   2% /run
/dev/sda2       39096900   7839824  29241332  22% /
tmpfs            2014180         0   2014180   0% /tmp
VmShared       960384328 288658104 671726224  31% /media/sf_VmShared
tmpfs             402836        40    402796   1% /run/user/1000
/dev/sr0           59558     59558         0 100% /run/media/user1/VBox_GAs_6.1.16
