Filesystem     1K-blocks      Used Available Use% Mounted on
devtmpfs         1977120         0   1977120   0% /dev
tmpfs            2013460         0   2013460   0% /dev/shm
tmpfs            2013460       652   2012808   1% /run
/dev/sda1       41021664   5809284  33098896  15% /
cgroup           2013460         0   2013460   0% /sys/fs/cgroup
tmpfs            2013460         4   2013456   1% /tmp
VmShared       960384328 644491188 315893140  68% /media/sf_VmShared
none             2013460        32   2013428   1% /run/systemd
none             2013460         0   2013460   0% /run/user
tmpfs             402692        12    402680   1% /run/user/1000
