Filesystem     1K-blocks      Used Available Use% Mounted on
devtmpfs         1977220         0   1977220   0% /dev
tmpfs            2013464         0   2013464   0% /dev/shm
tmpfs            2013464       656   2012808   1% /run
/dev/sda1       41021664   5788008  33120172  15% /
cgroup           2013464         0   2013464   0% /sys/fs/cgroup
tmpfs            2013464         4   2013460   1% /tmp
VmShared       960384328 651383452 309000876  68% /media/sf_VmShared
none             2013464        32   2013432   1% /run/systemd
none             2013464         0   2013464   0% /run/user
tmpfs             402692        12    402680   1% /run/user/1000
