Filesystem     1K-blocks      Used Available Use% Mounted on
devtmpfs         1979664         0   1979664   0% /dev
tmpfs            2013928         0   2013928   0% /dev/shm
tmpfs            2013928       648   2013280   1% /run
/dev/sda1       41021664   8393748  30514432  22% /
cgroup           2013928         0   2013928   0% /sys/fs/cgroup
tmpfs            2013928         4   2013924   1% /tmp
none             2013928        32   2013896   1% /run/systemd
VmShared       960384328 423192056 537192272  45% /media/sf_VmShared
none             2013928         0   2013928   0% /run/user
tmpfs             402784        12    402772   1% /run/user/1000

