Filesystem     1K-blocks      Used Available Use% Mounted on
devtmpfs         1978340         0   1978340   0% /dev
tmpfs            2013488         0   2013488   0% /dev/shm
tmpfs            2013488       652   2012836   1% /run
/dev/sda1       41021664   5328616  33579564  14% /
cgroup           2013488         0   2013488   0% /sys/fs/cgroup
tmpfs            2013488         4   2013484   1% /tmp
VmShared       960384328 639806728 320577600  67% /media/sf_VmShared
none             2013488        32   2013456   1% /run/systemd
none             2013488         0   2013488   0% /run/user
tmpfs             402696        12    402684   1% /run/user/1000
