Filesystem     1K-blocks      Used Available Use% Mounted on
devtmpfs         1978348         0   1978348   0% /dev
tmpfs            2013496         0   2013496   0% /dev/shm
tmpfs            2013496       652   2012844   1% /run
/dev/sda1       41021664   5343964  33564216  14% /
cgroup           2013496         0   2013496   0% /sys/fs/cgroup
tmpfs            2013496         4   2013492   1% /tmp
VmShared       960384328 637115496 323268832  67% /media/sf_VmShared
none             2013496        32   2013464   1% /run/systemd
none             2013496         0   2013496   0% /run/user
tmpfs             402696        12    402684   1% /run/user/1000
