Filesystem     1K-blocks    Used Available Use% Mounted on
devtmpfs         1978004       0   1978004   0% /dev
tmpfs            2014084       0   2014084   0% /dev/shm
tmpfs            2014084     652   2013432   1% /run
/dev/sda1       41021664 5338524  33569656  14% /
cgroup           2014084       0   2014084   0% /sys/fs/cgroup
tmpfs            2014084       4   2014080   1% /tmp
none             2014084      32   2014052   1% /run/systemd
none             2014084       0   2014084   0% /run/user
tmpfs             402816      12    402804   1% /run/user/1000

