Filesystem     1K-blocks      Used Available Use% Mounted on
devtmpfs         1979588         0   1979588   0% /dev
tmpfs            2013928         0   2013928   0% /dev/shm
tmpfs            2013928       652   2013276   1% /run
/dev/sda1       41021664   5455328  33452852  15% /
cgroup           2013928         0   2013928   0% /sys/fs/cgroup
tmpfs            2013928         4   2013924   1% /tmp
VmShared       960384328 467644764 492739564  49% /media/sf_VmShared
none             2013928        32   2013896   1% /run/systemd
none             2013928         0   2013928   0% /run/user
tmpfs             402784        12    402772   1% /run/user/1000
