Filesystem     1K-blocks      Used Available Use% Mounted on
devtmpfs         1978880         0   1978880   0% /dev
tmpfs            2013624         0   2013624   0% /dev/shm
tmpfs            2013624       652   2012972   1% /run
/dev/sda1       41021664   5575156  33333024  15% /
cgroup           2013624         0   2013624   0% /sys/fs/cgroup
tmpfs            2013624         4   2013620   1% /tmp
VmShared       960384328 473963928 486420400  50% /media/sf_VmShared
none             2013624        32   2013592   1% /run/systemd
none             2013624         0   2013624   0% /run/user
tmpfs             402724        12    402712   1% /run/user/1000
